hw02_dplyr_exploration
…
The above chunk shows numbers of observations for each continent. But if we check back the gapminder dataset, it is noticeable that each country of the corresponding continent contributes multiple records. Yet we are not sure whether numbers of countries within each continent have changed over time.

gapminder %>% 
  select(continent,year) %>% 
  group_by(year) %>% 
  count(continent)

## # A tibble: 60 x 3
## # Groups:   year [12]
##     year continent     n
##    <int> <fct>     <int>
##  1  1952 Africa       52
##  2  1952 Americas     25
##  3  1952 Asia         33
##  4  1952 Europe       30
##  5  1952 Oceania       2
##  6  1957 Africa       52
##  7  1957 Americas     25
##  8  1957 Asia         33
##  9  1957 Europe       30
## 10  1957 Oceania       2
## # ... with 50 more rows
…
