…
## 1.3 `mutate()`

*Requirement:* Filter `gapminder` to all entries that have experienced a
drop in life expectancy and include a new variable that’s the increase
in life expectancy in the tibble.

``` r
gapminder %>% 
  group_by(country) %>% 
  arrange(year) %>% 
  mutate(inc_lifeExp = lifeExp - lag(lifeExp)) %>% 
  filter(inc_lifeExp < 0)
```

    ## # A tibble: 102 x 7
    ## # Groups:   country [52]
    ##    country         continent  year lifeExp       pop gdpPercap inc_lifeExp
    ##    <fct>           <fct>     <int>   <dbl>     <int>     <dbl>       <dbl>
    ##  1 China           Asia       1962    44.5 665770000      488.     -6.05  
    ##  2 Cambodia        Asia       1972    40.3   7450606      422.     -5.10  
    ##  3 Czech Republic  Europe     1972    70.3   9862158    13108.     -0.0900
    ##  4 Netherlands     Europe     1972    73.8  13329874    18795.     -0.0700
    ##  5 Slovak Republic Europe     1972    70.4   4593433     9674.     -0.63  
    ##  6 Bulgaria        Europe     1977    70.8   8797022     7612.     -0.09  
    ##  7 Cambodia        Asia       1977    31.2   6978607      525.     -9.10  
    ##  8 El Salvador     Americas   1977    56.7   4282586     5139.     -1.51  
    ##  9 Poland          Europe     1977    70.7  34621254     9508.     -0.180 
    ## 10 Uganda          Africa     1977    50.4  11457758      844.     -0.666 
    ## # ... with 92 more rows

## 1.4 `max()`

*Requirement:* Filter `gapminder` in order to show the max GDP per
capita experienced by each country.

``` r
gapminder %>% 
  group_by(country) %>% 
  mutate(max_gdpPercap = max(gdpPercap)) %>%
  filter(gdpPercap == max_gdpPercap) %>% 
  select(country, year, max_gdpPercap)
```

    ## # A tibble: 142 x 3
    ## # Groups:   country [142]
    ##    country      year max_gdpPercap
    ##    <fct>       <int>         <dbl>
    ##  1 Afghanistan  1982          978.
    ##  2 Albania      2007         5937.
    ##  3 Algeria      2007         6223.
    ##  4 Angola       1967         5523.
    ##  5 Argentina    2007        12779.
    ##  6 Australia    2007        34435.
    ##  7 Austria      2007        36126.
    ##  8 Bahrain      2007        29796.
    ##  9 Bangladesh   2007         1391.
    ## 10 Belgium      2007        33693.
    ## # ... with 132 more rows
…
The above chunk shows numbers of observations for each continent. But if
we check back the `gapminder` dataset, it is noticeable that each
country of the corresponding continent contributes multiple records. Yet
we are not sure whether numbers of countries within each continent have
changed over time.

``` r
gapminder %>% 
  select(continent,year) %>% 
  group_by(year) %>% 
  count(continent)
```

    ## # A tibble: 60 x 3
    ## # Groups:   year [12]
    ##     year continent     n
    ##    <int> <fct>     <int>
    ##  1  1952 Africa       52
    ##  2  1952 Americas     25
    ##  3  1952 Asia         33
    ##  4  1952 Europe       30
    ##  5  1952 Oceania       2
    ##  6  1957 Africa       52
    ##  7  1957 Americas     25
    ##  8  1957 Asia         33
    ##  9  1957 Europe       30
    ## 10  1957 Oceania       2
    ## # ... with 50 more rows
…
To obtain the values properly, all we need to do is just to slightly
modify the code.

``` r
filter(gapminder, country == "Rwanda" | country == "Afghanistan")
```

    ## # A tibble: 24 x 6
    ##    country     continent  year lifeExp      pop gdpPercap
    ##    <fct>       <fct>     <int>   <dbl>    <int>     <dbl>
    ##  1 Afghanistan Asia       1952    28.8  8425333      779.
    ##  2 Afghanistan Asia       1957    30.3  9240934      821.
    ##  3 Afghanistan Asia       1962    32.0 10267083      853.
    ##  4 Afghanistan Asia       1967    34.0 11537966      836.
    ##  5 Afghanistan Asia       1972    36.1 13079460      740.
    ##  6 Afghanistan Asia       1977    38.4 14880372      786.
    ##  7 Afghanistan Asia       1982    39.9 12881816      978.
    ##  8 Afghanistan Asia       1987    40.8 13867957      852.
    ##  9 Afghanistan Asia       1992    41.7 16317921      649.
    ## 10 Afghanistan Asia       1997    41.8 22227415      635.
    ## # ... with 14 more rows
