hw03-dplyr-ggplot2
…
Now equipped with proper tools, we are ready to get familiar with them by finishing the following tasks.

Task 1

Requirements: Report the absolute or relative abundance of countries with low life expectancy over time by continent. Then determine how many countries on each continent have a life expectancy less than the chosen benchmark, for each year.

Here we define life expectancy less than the mean value of life expectancy across the world as low life expectancy.

gapminder %>% 
  group_by(year) %>% 
  filter(lifeExp < mean(lifeExp)) %>% 
  group_by(year, continent) %>% 
  summarise(lowlifeExpCount = length(continent))

## # A tibble: 44 x 3
## # Groups:   year [12]
##     year continent lowlifeExpCount
##    <int> <fct>               <int>
##  1  1952 Africa                 50
##  2  1952 Americas                9
##  3  1952 Asia                   22
##  4  1952 Europe                  1
##  5  1957 Africa                 50
##  6  1957 Americas                9
##  7  1957 Asia                   20
##  8  1957 Europe                  1
##  9  1962 Africa                 50
## 10  1962 Americas                8
## # ... with 34 more rows
…
