…
    ##     Min.  1st Qu.   Median     Mean  3rd Qu.     Max. 
    ##    241.2   1202.1   3531.8   7215.3   9325.5 113523.1

### Selecting certain values and filtering data

We have already learned that this is a large dataset. Therefore,
inevitably we need to break it down and select or filter data based on
certain criteria.

> Suppose that we are carrying out **continent-specific** studies and
> interested in **Oceania**.

    ## # A tibble: 24 x 6
    ##    country   continent  year lifeExp      pop gdpPercap
    ##    <fct>     <fct>     <int>   <dbl>    <int>     <dbl>
    ##  1 Australia Oceania    1952    69.1  8691212    10040.
    ##  2 Australia Oceania    1957    70.3  9712569    10950.
    ##  3 Australia Oceania    1962    70.9 10794968    12217.
    ##  4 Australia Oceania    1967    71.1 11872264    14526.
    ##  5 Australia Oceania    1972    71.9 13177000    16789.
    ##  6 Australia Oceania    1977    73.5 14074100    18334.
    ##  7 Australia Oceania    1982    74.7 15184200    19477.
    ##  8 Australia Oceania    1987    76.3 16257249    21889.
    ##  9 Australia Oceania    1992    77.6 17481977    23425.
    ## 10 Australia Oceania    1997    78.8 18565243    26998.
    ## # ... with 14 more rows
…
